Assignment2/digital_clock.vcd
$date
	Thu Jun  8 00:38:48 2023
$end
$version
	Icarus Verilog
$end
$timescale
	1s
$end
$scope module tb $end
$var wire 7 ! seconds_output [6:0] $end
$var wire 7 " minutes_output [6:0] $end
$var wire 4 # hours_output [3:0] $end
$var reg 1 $ b $end
$var reg 1 % clk $end
$var reg 1 & rst $end
$scope module block $end
$var wire 1 $ b $end
$var wire 1 % clk $end
$var wire 6 ' const_0_59 [5:0] $end
$var wire 4 ( const_10_12 [3:0] $end
$var wire 1 ) const_11_1 $end
$var wire 1 * const_12_0 $end
$var wire 4 + const_13_1 [3:0] $end
$var wire 1 , const_1_0 $end
$var wire 1 - const_2_1 $end
$var wire 1 . const_3_0 $end
$var wire 7 / const_4_0 [6:0] $end
$var wire 6 0 const_5_59 [5:0] $end
$var wire 1 1 const_6_0 $end
$var wire 1 2 const_7_1 $end
$var wire 1 3 const_8_0 $end
$var wire 7 4 const_9_0 [6:0] $end
$var wire 4 5 hours_output [3:0] $end
$var wire 7 6 minutes_output [6:0] $end
$var wire 1 & rst $end
$var wire 7 7 seconds_output [6:0] $end
$var wire 1 8 tmp0 $end
$var wire 7 9 tmp1 [6:0] $end
$var wire 7 : tmp10 [6:0] $end
$var wire 1 ; tmp12 $end
$var wire 6 < tmp13 [5:0] $end
$var wire 7 = tmp14 [6:0] $end
$var wire 1 > tmp17 $end
$var wire 1 ? tmp18 $end
$var wire 1 @ tmp19 $end
$var wire 1 A tmp20 $end
$var wire 1 B tmp21 $end
$var wire 1 C tmp23 $end
$var wire 3 D tmp24 [2:0] $end
$var wire 4 E tmp25 [3:0] $end
$var wire 1 F tmp28 $end
$var wire 1 G tmp29 $end
$var wire 1 H tmp3 $end
$var wire 1 I tmp30 $end
$var wire 1 J tmp31 $end
$var wire 1 K tmp32 $end
$var wire 1 L tmp33 $end
$var wire 1 M tmp34 $end
$var wire 1 N tmp35 $end
$var wire 1 O tmp36 $end
$var wire 6 P tmp4 [5:0] $end
$var wire 7 Q tmp5 [6:0] $end
$var wire 1 R tmp8 $end
$var wire 1 S tmp9 $end
$var wire 7 T tmp7 [6:0] $end
$var wire 8 U tmp6 [7:0] $end
$var wire 4 V tmp42 [3:0] $end
$var wire 4 W tmp41 [3:0] $end
$var wire 7 X tmp40 [6:0] $end
$var wire 7 Y tmp39 [6:0] $end
$var wire 7 Z tmp38 [6:0] $end
$var wire 7 [ tmp37 [6:0] $end
$var wire 4 \ tmp27 [3:0] $end
$var wire 5 ] tmp26 [4:0] $end
$var wire 1 ^ tmp22 $end
$var wire 1 _ tmp2 $end
$var wire 7 ` tmp16 [6:0] $end
$var wire 8 a tmp15 [7:0] $end
$var wire 1 b tmp11 $end
$var reg 4 c hours [3:0] $end
$var reg 7 d minutes [6:0] $end
$var reg 7 e seconds [6:0] $end
$upscope $end
$upscope $end
$enddefinitions $end
#0
$dumpvars
b0 e
b0 d
b1 c
0b
b1 a
b1 `
0_
0^
b10 ]
b10 \
b1 [
b1 Z
b0 Y
b0 X
b1 W
b1 V
b1 U
b1 T
0S
0R
b1 Q
b0 P
0O
0N
0M
0L
0K
0J
0I
1H
0G
0F
b1 E
b0 D
1C
0B
0A
0@
0?
0>
b1 =
b0 <
1;
b111011 :
b111011 9
08
b0 7
b0 6
b1 5
b0 4
03
12
01
b111011 0
b0 /
0.
1-
0,
b1 +
0*
1)
b1100 (
b111011 '
0&
0%
0$
b1 #
b0 "
b0 !
$end
#5
b10 Z
b10 [
b10 T
b10 U
b1 !
b1 7
b1 e
1%
#10
0%
#15
b11 Z
b11 [
b11 T
b11 U
b10 !
b10 7
b10 e
1%
#20
0%
#25
b100 Z
b100 [
b100 T
b100 U
b11 !
b11 7
b11 e
1%
#30
0%
#35
b101 Z
b101 [
b101 T
b101 U
b100 !
b100 7
b100 e
1%
#40
0%
#45
b110 Z
b110 [
b110 T
b110 U
b101 !
b101 7
b101 e
1%
#50
0%
#55
b111 Z
b111 [
b111 T
b111 U
b110 !
b110 7
b110 e
1%
#60
0%
#65
b1000 Z
b1000 [
b1000 T
b1000 U
b111 !
b111 7
b111 e
1%
#70
0%
#75
b1001 Z
b1001 [
b1001 T
b1001 U
b1000 !
b1000 7
b1000 e
1%
#80
0%
#85
b1010 Z
b1010 [
b1010 T
b1010 U
b1001 !
b1001 7
b1001 e
1%
#90
0%
#95
b1011 Z
b1011 [
b1011 T
b1011 U
b1010 !
b1010 7
b1010 e
1%
#100
0%
#105
b1100 Z
b1100 [
b1100 T
b1100 U
b1011 !
b1011 7
b1011 e
1%
#110
0%
#115
b1101 Z
b1101 [
b1101 T
b1101 U
b1100 !
b1100 7
b1100 e
1%
#120
0%
#125
b1110 Z
b1110 [
b1110 T
b1110 U
b1101 !
b1101 7
b1101 e
1%
#130
0%
#135
b1111 Z
b1111 [
b1111 T
b1111 U
b1110 !
b1110 7
b1110 e
1%
#140
0%
#145
b10000 Z
b10000 [
b10000 T
b10000 U
b1111 !
b1111 7
b1111 e
1%
#150
0%
#155
b10001 Z
b10001 [
b10001 T
b10001 U
b10000 !
b10000 7
b10000 e
1%
#160
0%
#165
b10010 Z
b10010 [
b10010 T
b10010 U
b10001 !
b10001 7
b10001 e
1%
#170
0%
#175
b10011 Z
b10011 [
b10011 T
b10011 U
b10010 !
b10010 7
b10010 e
1%
#180
0%
#185
b10100 Z
b10100 [
b10100 T
b10100 U
b10011 !
b10011 7
b10011 e
1%
#190
0%
#195
b10101 Z
b10101 [
b10101 T
b10101 U
b10100 !
b10100 7
b10100 e
1%
#200
0%
#205
b10110 Z
b10110 [
b10110 T
b10110 U
b10101 !
b10101 7
b10101 e
1%
#210
0%
#215
b10111 Z
b10111 [
b10111 T
b10111 U
b10110 !
b10110 7
b10110 e
1%
#220
0%
#225
b11000 Z
b11000 [
b11000 T
b11000 U
b10111 !
b10111 7
b10111 e
1%
#230
0%
#235
b11001 Z
b11001 [
b11001 T
b11001 U
b11000 !
b11000 7
b11000 e
1%
#240
0%
#245
b11010 Z
b11010 [
b11010 T
b11010 U
b11001 !
b11001 7
b11001 e
1%
#250
0%
#255
b11011 Z
b11011 [
b11011 T
b11011 U
b11010 !
b11010 7
b11010 e
1%
#260
0%
#265
b11100 Z
b11100 [
b11100 T
b11100 U
b11011 !
b11011 7
b11011 e
1%
#270
0%
#275
b11101 Z
b11101 [
b11101 T
b11101 U
b11100 !
b11100 7
b11100 e
1%
#280
0%
#285
b11110 Z
b11110 [
b11110 T
b11110 U
b11101 !
b11101 7
b11101 e
1%
#290
0%
#295
b11111 Z
b11111 [
b11111 T
b11111 U
b11110 !
b11110 7
b11110 e
1%
#300
0%
#305
b100000 Z
b100000 [
b100000 T
b100000 U
b11111 !
b11111 7
b11111 e
1%
#310
0%
#315
b100001 Z
b100001 [
b100001 T
b100001 U
b100000 !
b100000 7
b100000 e
1%
#320
0%
#325
b100010 Z
b100010 [
b100010 T
b100010 U
b100001 !
b100001 7
b100001 e
1%
#330
0%
#335
b100011 Z
b100011 [
b100011 T
b100011 U
b100010 !
b100010 7
b100010 e
1%
#340
0%
#345
b100100 Z
b100100 [
b100100 T
b100100 U
b100011 !
b100011 7
b100011 e
1%
#350
0%
#355
b100101 Z
b100101 [
b100101 T
b100101 U
b100100 !
b100100 7
b100100 e
1%
#360
0%
#365
b100110 Z
b100110 [
b100110 T
b100110 U
b100101 !
b100101 7
b100101 e
1%
#370
0%
#375
b100111 Z
b100111 [
b100111 T
b100111 U
b100110 !
b100110 7
b100110 e
1%
#380
0%
#385
b101000 Z
b101000 [
b101000 T
b101000 U
b100111 !
b100111 7
b100111 e
1%
#390
0%
#395
b101001 Z
b101001 [
b101001 T
b101001 U
b101000 !
b101000 7
b101000 e
1%
#400
0%
#405
b101010 Z
b101010 [
b101010 T
b101010 U
b101001 !
b101001 7
b101001 e
1%
#410
0%
#415
b101011 Z
b101011 [
b101011 T
b101011 U
b101010 !
b101010 7
b101010 e
1%
#420
0%
#425
b101100 Z
b101100 [
b101100 T
b101100 U
b101011 !
b101011 7
b101011 e
1%
#430
0%
#435
b101101 Z
b101101 [
b101101 T
b101101 U
b101100 !
b101100 7
b101100 e
1%
#440
0%
#445
b101110 Z
b101110 [
b101110 T
b101110 U
b101101 !
b101101 7
b101101 e
1%
#450
0%
#455
b101111 Z
b101111 [
b101111 T
b101111 U
b101110 !
b101110 7
b101110 e
1%
#460
0%
#465
b110000 Z
b110000 [
b110000 T
b110000 U
b101111 !
b101111 7
b101111 e
1%
#470
0%
#475
b110001 Z
b110001 [
b110001 T
b110001 U
b110000 !
b110000 7
b110000 e
1%
#480
0%
#485
b110010 Z
b110010 [
b110010 T
b110010 U
b110001 !
b110001 7
b110001 e
1%
#490
0%
#495
b110011 Z
b110011 [
b110011 T
b110011 U
b110010 !
b110010 7
b110010 e
1%
#500
0%
#505
b110100 Z
b110100 [
b110100 T
b110100 U
b110011 !
b110011 7
b110011 e
1%
#510
0%
#515
b110101 Z
b110101 [
b110101 T
b110101 U
b110100 !
b110100 7
b110100 e
1%
#520
0%
#525
b110110 Z
b110110 [
b110110 T
b110110 U
b110101 !
b110101 7
b110101 e
1%
#530
0%
#535
b110111 Z
b110111 [
b110111 T
b110111 U
b110110 !
b110110 7
b110110 e
1%
#540
0%
#545
b111000 Z
b111000 [
b111000 T
b111000 U
b110111 !
b110111 7
b110111 e
1%
#550
0%
#555
b111001 Z
b111001 [
b111001 T
b111001 U
b111000 !
b111000 7
b111000 e
1%
#560
0%
#565
b111010 Z
b111010 [
b111010 T
b111010 U
b111001 !
b111001 7
b111001 e
1%
#570
0%
#575
b111011 Z
b111011 [
b111011 T
b111011 U
b111010 !
b111010 7
b111010 e
1%
#580
0%
#585
b1 X
b1 Y
b0 Z
1?
1R
1>
1@
1F
1K
0H
b111100 T
1_
b111100 U
b111011 !
b111011 7
b111011 e
1%
#590
0%
#595
b1 Z
0?
b1 X
0R
0>
0@
0F
0K
b1 Y
1H
b1 T
b1 [
b10 `
0_
b1 U
b0 !
b0 7
b0 e
b10 a
b1 "
b1 6
b1 d
1%
#600
0%
#605
b10 Z
b10 [
b10 T
b10 U
b1 !
b1 7
b1 e
1%
#610
0%
#615
b11 Z
b11 [
b11 T
b11 U
b10 !
b10 7
b10 e
1%
#620
0%
#625
b100 Z
b100 [
b100 T
b100 U
b11 !
b11 7
b11 e
1%
#630
0%
#635
b101 Z
b101 [
b101 T
b101 U
b100 !
b100 7
b100 e
1%
#640
0%
#645
b110 Z
b110 [
b110 T
b110 U
b101 !
b101 7
b101 e
1%
#650
0%
#655
b111 Z
b111 [
b111 T
b111 U
b110 !
b110 7
b110 e
1%
#660
0%
#665
b1000 Z
b1000 [
b1000 T
b1000 U
b111 !
b111 7
b111 e
1%
#670
0%
#675
b1001 Z
b1001 [
b1001 T
b1001 U
b1000 !
b1000 7
b1000 e
1%
#680
0%
#685
b1010 Z
b1010 [
b1010 T
b1010 U
b1001 !
b1001 7
b1001 e
1%
#690
0%
#695
b1011 Z
b1011 [
b1011 T
b1011 U
b1010 !
b1010 7
b1010 e
1%
#700
0%
#705
b1100 Z
b1100 [
b1100 T
b1100 U
b1011 !
b1011 7
b1011 e
1%
#710
0%
#715
b1101 Z
b1101 [
b1101 T
b1101 U
b1100 !
b1100 7
b1100 e
1%
#720
0%
#725
b1110 Z
b1110 [
b1110 T
b1110 U
b1101 !
b1101 7
b1101 e
1%
#730
0%
#735
b1111 Z
b1111 [
b1111 T
b1111 U
b1110 !
b1110 7
b1110 e
1%
#740
0%
#745
b10000 Z
b10000 [
b10000 T
b10000 U
b1111 !
b1111 7
b1111 e
1%
#750
0%
#755
b10001 Z
b10001 [
b10001 T
b10001 U
b10000 !
b10000 7
b10000 e
1%
#760
0%
#765
b10010 Z
b10010 [
b10010 T
b10010 U
b10001 !
b10001 7
b10001 e
1%
#770
0%
#775
b10011 Z
b10011 [
b10011 T
b10011 U
b10010 !
b10010 7
b10010 e
1%
#780
0%
#785
b10100 Z
b10100 [
b10100 T
b10100 U
b10011 !
b10011 7
b10011 e
1%
#790
0%
#795
b10101 Z
b10101 [
b10101 T
b10101 U
b10100 !
b10100 7
b10100 e
1%
#800
0%
#805
b10110 Z
b10110 [
b10110 T
b10110 U
b10101 !
b10101 7
b10101 e
1%
#810
0%
#815
b10111 Z
b10111 [
b10111 T
b10111 U
b10110 !
b10110 7
b10110 e
1%
#820
0%
#825
b11000 Z
b11000 [
b11000 T
b11000 U
b10111 !
b10111 7
b10111 e
1%
#830
0%
#835
b11001 Z
b11001 [
b11001 T
b11001 U
b11000 !
b11000 7
b11000 e
1%
#840
0%
#845
b11010 Z
b11010 [
b11010 T
b11010 U
b11001 !
b11001 7
b11001 e
1%
#850
0%
#855
b11011 Z
b11011 [
b11011 T
b11011 U
b11010 !
b11010 7
b11010 e
1%
#860
0%
#865
b11100 Z
b11100 [
b11100 T
b11100 U
b11011 !
b11011 7
b11011 e
1%
#870
0%
#875
b11101 Z
b11101 [
b11101 T
b11101 U
b11100 !
b11100 7
b11100 e
1%
#880
0%
#885
b11110 Z
b11110 [
b11110 T
b11110 U
b11101 !
b11101 7
b11101 e
1%
#890
0%
#895
b11111 Z
b11111 [
b11111 T
b11111 U
b11110 !
b11110 7
b11110 e
1%
#900
0%
#905
b100000 Z
b100000 [
b100000 T
b100000 U
b11111 !
b11111 7
b11111 e
1%
#910
0%
#915
b100001 Z
b100001 [
b100001 T
b100001 U
b100000 !
b100000 7
b100000 e
1%
#920
0%
#925
b100010 Z
b100010 [
b100010 T
b100010 U
b100001 !
b100001 7
b100001 e
1%
#930
0%
#935
b100011 Z
b100011 [
b100011 T
b100011 U
b100010 !
b100010 7
b100010 e
1%
#940
0%
#945
b100100 Z
b100100 [
b100100 T
b100100 U
b100011 !
b100011 7
b100011 e
1%
#950
0%
#955
b100101 Z
b100101 [
b100101 T
b100101 U
b100100 !
b100100 7
b100100 e
1%
#960
0%
#965
b100110 Z
b100110 [
b100110 T
b100110 U
b100101 !
b100101 7
b100101 e
1%
#970
0%
#975
b100111 Z
b100111 [
b100111 T
b100111 U
b100110 !
b100110 7
b100110 e
1%
#980
0%
#985
b101000 Z
b101000 [
b101000 T
b101000 U
b100111 !
b100111 7
b100111 e
1%
#990
0%
#995
b101001 Z
b101001 [
b101001 T
b101001 U
b101000 !
b101000 7
b101000 e
1%
#1000
0%
#1005
b101010 Z
b101010 [
b101010 T
b101010 U
b101001 !
b101001 7
b101001 e
1%
#1010
0%
#1015
b101011 Z
b101011 [
b101011 T
b101011 U
b101010 !
b101010 7
b101010 e
1%
#1020
0%
#1025
b101100 Z
b101100 [
b101100 T
b101100 U
b101011 !
b101011 7
b101011 e
1%
#1030
0%
#1035
b101101 Z
b101101 [
b101101 T
b101101 U
b101100 !
b101100 7
b101100 e
1%
#1040
0%
#1045
b101110 Z
b101110 [
b101110 T
b101110 U
b101101 !
b101101 7
b101101 e
1%
#1050
0%
#1055
b101111 Z
b101111 [
b101111 T
b101111 U
b101110 !
b101110 7
b101110 e
1%
#1060
0%
#1065
b110000 Z
b110000 [
b110000 T
b110000 U
b101111 !
b101111 7
b101111 e
1%
#1070
0%
#1075
b110001 Z
b110001 [
b110001 T
b110001 U
b110000 !
b110000 7
b110000 e
1%
#1080
0%
#1085
b110010 Z
b110010 [
b110010 T
b110010 U
b110001 !
b110001 7
b110001 e
1%
#1090
0%
#1095
b110011 Z
b110011 [
b110011 T
b110011 U
b110010 !
b110010 7
b110010 e
1%
#1100
0%
#1105
b110100 Z
b110100 [
b110100 T
b110100 U
b110011 !
b110011 7
b110011 e
1%
#1110
0%
#1115
b110101 Z
b110101 [
b110101 T
b110101 U
b110100 !
b110100 7
b110100 e
1%
#1120
0%
#1125
b110110 Z
b110110 [
b110110 T
b110110 U
b110101 !
b110101 7
b110101 e
1%
#1130
0%
#1135
b110111 Z
b110111 [
b110111 T
b110111 U
b110110 !
b110110 7
b110110 e
1%
#1140
0%
#1145
b111000 Z
b111000 [
b111000 T
b111000 U
b110111 !
b110111 7
b110111 e
1%
#1150
0%
#1155
b111001 Z
b111001 [
b111001 T
b111001 U
b111000 !
b111000 7
b111000 e
1%
#1160
0%
#1165
b111010 Z
b111010 [
b111010 T
b111010 U
b111001 !
b111001 7
b111001 e
1%
#1170
0%
#1175
b111011 Z
b111011 [
b111011 T
b111011 U
b111010 !
b111010 7
b111010 e
1%
#1180
0%
#1185
b10 X
b10 Y
b0 Z
1?
1R
1>
1@
1F
1K
0H
b111100 T
1_
b111100 U
b111011 !
b111011 7
b111011 e
1%
#1190
0%
#1195
b1 Z
0?
b10 X
0R
0>
0@
0F
0K
b10 Y
1H
b1 T
b1 [
b11 `
0_
b1 U
b0 !
b0 7
b0 e
b11 a
b10 "
b10 6
b10 d
1%
#1200
0%
#1205
b10 Z
b10 [
b10 T
b10 U
b1 !
b1 7
b1 e
1%
#1210
0%
#1215
b11 Z
b11 [
b11 T
b11 U
b10 !
b10 7
b10 e
1%
#1220
0%
#1225
b100 Z
b100 [
b100 T
b100 U
b11 !
b11 7
b11 e
1%
#1230
0%
#1235
b101 Z
b101 [
b101 T
b101 U
b100 !
b100 7
b100 e
1%
#1240
0%
#1245
b110 Z
b110 [
b110 T
b110 U
b101 !
b101 7
b101 e
1%
#1250
0%
#1255
b111 Z
b111 [
b111 T
b111 U
b110 !
b110 7
b110 e
1%
#1260
0%
#1265
b1000 Z
b1000 [
b1000 T
b1000 U
b111 !
b111 7
b111 e
1%
#1270
0%
#1275
b1001 Z
b1001 [
b1001 T
b1001 U
b1000 !
b1000 7
b1000 e
1%
#1280
0%
#1285
b1010 Z
b1010 [
b1010 T
b1010 U
b1001 !
b1001 7
b1001 e
1%
#1290
0%
#1295
b1011 Z
b1011 [
b1011 T
b1011 U
b1010 !
b1010 7
b1010 e
1%
#1300
0%
#1305
b1100 Z
b1100 [
b1100 T
b1100 U
b1011 !
b1011 7
b1011 e
1%
#1310
0%
#1315
b1101 Z
b1101 [
b1101 T
b1101 U
b1100 !
b1100 7
b1100 e
1%
#1320
0%
#1325
b1110 Z
b1110 [
b1110 T
b1110 U
b1101 !
b1101 7
b1101 e
1%
#1330
0%
#1335
b1111 Z
b1111 [
b1111 T
b1111 U
b1110 !
b1110 7
b1110 e
1%
#1340
0%
#1345
b10000 Z
b10000 [
b10000 T
b10000 U
b1111 !
b1111 7
b1111 e
1%
#1350
0%
#1355
b10001 Z
b10001 [
b10001 T
b10001 U
b10000 !
b10000 7
b10000 e
1%
#1360
0%
#1365
b10010 Z
b10010 [
b10010 T
b10010 U
b10001 !
b10001 7
b10001 e
1%
#1370
0%
#1375
b10011 Z
b10011 [
b10011 T
b10011 U
b10010 !
b10010 7
b10010 e
1%
#1380
0%
#1385
b10100 Z
b10100 [
b10100 T
b10100 U
b10011 !
b10011 7
b10011 e
1%
#1390
0%
#1395
b10101 Z
b10101 [
b10101 T
b10101 U
b10100 !
b10100 7
b10100 e
1%
#1400
0%
#1405
b10110 Z
b10110 [
b10110 T
b10110 U
b10101 !
b10101 7
b10101 e
1%
#1410
0%
#1415
b10111 Z
b10111 [
b10111 T
b10111 U
b10110 !
b10110 7
b10110 e
1%
#1420
0%
#1425
b11000 Z
b11000 [
b11000 T
b11000 U
b10111 !
b10111 7
b10111 e
1%
#1430
0%
#1435
b11001 Z
b11001 [
b11001 T
b11001 U
b11000 !
b11000 7
b11000 e
1%
#1440
0%
#1445
b11010 Z
b11010 [
b11010 T
b11010 U
b11001 !
b11001 7
b11001 e
1%
#1450
0%
#1455
b11011 Z
b11011 [
b11011 T
b11011 U
b11010 !
b11010 7
b11010 e
1%
#1460
0%
#1465
b11100 Z
b11100 [
b11100 T
b11100 U
b11011 !
b11011 7
b11011 e
1%
#1470
0%
#1475
b11101 Z
b11101 [
b11101 T
b11101 U
b11100 !
b11100 7
b11100 e
1%
#1480
0%
#1485
b11110 Z
b11110 [
b11110 T
b11110 U
b11101 !
b11101 7
b11101 e
1%
#1490
0%
#1495
b11111 Z
b11111 [
b11111 T
b11111 U
b11110 !
b11110 7
b11110 e
1%
#1500
0%
#1505
b100000 Z
b100000 [
b100000 T
b100000 U
b11111 !
b11111 7
b11111 e
1%
#1510
0%
#1515
b100001 Z
b100001 [
b100001 T
b100001 U
b100000 !
b100000 7
b100000 e
1%
#1520
0%
#1525
b100010 Z
b100010 [
b100010 T
b100010 U
b100001 !
b100001 7
b100001 e
1%
#1530
0%
#1535
b100011 Z
b100011 [
b100011 T
b100011 U
b100010 !
b100010 7
b100010 e
1%
#1540
0%
#1545
b100100 Z
b100100 [
b100100 T
b100100 U
b100011 !
b100011 7
b100011 e
1%
#1550
0%
#1555
b100101 Z
b100101 [
b100101 T
b100101 U
b100100 !
b100100 7
b100100 e
1%
#1560
0%
#1565
b100110 Z
b100110 [
b100110 T
b100110 U
b100101 !
b100101 7
b100101 e
1%
#1570
0%
#1575
b100111 Z
b100111 [
b100111 T
b100111 U
b100110 !
b100110 7
b100110 e
1%
#1580
0%
#1585
b101000 Z
b101000 [
b101000 T
b101000 U
b100111 !
b100111 7
b100111 e
1%
#1590
0%
#1595
b101001 Z
b101001 [
b101001 T
b101001 U
b101000 !
b101000 7
b101000 e
1%
#1600
0%
#1605
b101010 Z
b101010 [
b101010 T
b101010 U
b101001 !
b101001 7
b101001 e
1%
#1610
0%
#1615
b101011 Z
b101011 [
b101011 T
b101011 U
b101010 !
b101010 7
b101010 e
1%
#1620
0%
#1625
b101100 Z
b101100 [
b101100 T
b101100 U
b101011 !
b101011 7
b101011 e
1%
#1630
0%
#1635
b101101 Z
b101101 [
b101101 T
b101101 U
b101100 !
b101100 7
b101100 e
1%
#1640
0%
#1645
b101110 Z
b101110 [
b101110 T
b101110 U
b101101 !
b101101 7
b101101 e
1%
#1650
0%
#1655
b101111 Z
b101111 [
b101111 T
b101111 U
b101110 !
b101110 7
b101110 e
1%
#1660
0%
#1665
b110000 Z
b110000 [
b110000 T
b110000 U
b101111 !
b101111 7
b101111 e
1%
#1670
0%
#1675
b110001 Z
b110001 [
b110001 T
b110001 U
b110000 !
b110000 7
b110000 e
1%
#1680
0%
#1685
b110010 Z
b110010 [
b110010 T
b110010 U
b110001 !
b110001 7
b110001 e
1%
#1690
0%
#1695
b110011 Z
b110011 [
b110011 T
b110011 U
b110010 !
b110010 7
b110010 e
1%
#1700
0%
#1705
b110100 Z
b110100 [
b110100 T
b110100 U
b110011 !
b110011 7
b110011 e
1%
#1710
0%
#1715
b110101 Z
b110101 [
b110101 T
b110101 U
b110100 !
b110100 7
b110100 e
1%
#1720
0%
#1725
b110110 Z
b110110 [
b110110 T
b110110 U
b110101 !
b110101 7
b110101 e
1%
#1730
0%
#1735
b110111 Z
b110111 [
b110111 T
b110111 U
b110110 !
b110110 7
b110110 e
1%
#1740
0%
#1745
b111000 Z
b111000 [
b111000 T
b111000 U
b110111 !
b110111 7
b110111 e
1%
#1750
0%
#1755
b111001 Z
b111001 [
b111001 T
b111001 U
b111000 !
b111000 7
b111000 e
1%
#1760
0%
#1765
b111010 Z
b111010 [
b111010 T
b111010 U
b111001 !
b111001 7
b111001 e
1%
#1770
0%
#1775
b111011 Z
b111011 [
b111011 T
b111011 U
b111010 !
b111010 7
b111010 e
1%
#1780
0%
#1785
b11 X
b11 Y
b0 Z
1?
1R
1>
1@
1F
1K
0H
b111100 T
1_
b111100 U
b111011 !
b111011 7
b111011 e
1%
#1790
0%
#1795
b1 Z
0?
b11 X
0R
0>
0@
0F
0K
b11 Y
1H
b1 T
b1 [
b100 `
0_
b1 U
b0 !
b0 7
b0 e
b100 a
b11 "
b11 6
b11 d
1%
#1800
0%
#1805
b10 Z
b10 [
b10 T
b10 U
b1 !
b1 7
b1 e
1%
#1810
0%
#1815
b11 Z
b11 [
b11 T
b11 U
b10 !
b10 7
b10 e
1%
#1820
0%
#1825
b100 Z
b100 [
b100 T
b100 U
b11 !
b11 7
b11 e
1%
#1830
0%
#1835
b101 Z
b101 [
b101 T
b101 U
b100 !
b100 7
b100 e
1%
#1840
0%
#1845
b110 Z
b110 [
b110 T
b110 U
b101 !
b101 7
b101 e
1%
#1850
0%
#1855
b111 Z
b111 [
b111 T
b111 U
b110 !
b110 7
b110 e
1%
#1860
0%
#1865
b1000 Z
b1000 [
b1000 T
b1000 U
b111 !
b111 7
b111 e
1%
#1870
0%
#1875
b1001 Z
b1001 [
b1001 T
b1001 U
b1000 !
b1000 7
b1000 e
1%
#1880
0%
#1885
b1010 Z
b1010 [
b1010 T
b1010 U
b1001 !
b1001 7
b1001 e
1%
#1890
0%
#1895
b1011 Z
b1011 [
b1011 T
b1011 U
b1010 !
b1010 7
b1010 e
1%
#1900
0%
#1905
b1100 Z
b1100 [
b1100 T
b1100 U
b1011 !
b1011 7
b1011 e
1%
#1910
0%
#1915
b1101 Z
b1101 [
b1101 T
b1101 U
b1100 !
b1100 7
b1100 e
1%
#1920
0%
#1925
b1110 Z
b1110 [
b1110 T
b1110 U
b1101 !
b1101 7
b1101 e
1%
#1930
0%
#1935
b1111 Z
b1111 [
b1111 T
b1111 U
b1110 !
b1110 7
b1110 e
1%
#1940
0%
#1945
b10000 Z
b10000 [
b10000 T
b10000 U
b1111 !
b1111 7
b1111 e
1%
#1950
0%
#1955
b10001 Z
b10001 [
b10001 T
b10001 U
b10000 !
b10000 7
b10000 e
1%
#1960
0%
#1965
b10010 Z
b10010 [
b10010 T
b10010 U
b10001 !
b10001 7
b10001 e
1%
#1970
0%
#1975
b10011 Z
b10011 [
b10011 T
b10011 U
b10010 !
b10010 7
b10010 e
1%
#1980
0%
#1985
b10100 Z
b10100 [
b10100 T
b10100 U
b10011 !
b10011 7
b10011 e
1%
#1990
0%
#1995
b10101 Z
b10101 [
b10101 T
b10101 U
b10100 !
b10100 7
b10100 e
1%
#2000
0%
#2005
b10110 Z
b10110 [
b10110 T
b10110 U
b10101 !
b10101 7
b10101 e
1%
#2010
0%
#2015
b10111 Z
b10111 [
b10111 T
b10111 U
b10110 !
b10110 7
b10110 e
1%
#2020
0%
#2025
b11000 Z
b11000 [
b11000 T
b11000 U
b10111 !
b10111 7
b10111 e
1%
#2030
0%
#2035
b11001 Z
b11001 [
b11001 T
b11001 U
b11000 !
b11000 7
b11000 e
1%
#2040
0%
#2045
b11010 Z
b11010 [
b11010 T
b11010 U
b11001 !
b11001 7
b11001 e
1%
#2050
0%
#2055
b11011 Z
b11011 [
b11011 T
b11011 U
b11010 !
b11010 7
b11010 e
1%
#2060
0%
#2065
b11100 Z
b11100 [
b11100 T
b11100 U
b11011 !
b11011 7
b11011 e
1%
#2070
0%
#2075
b11101 Z
b11101 [
b11101 T
b11101 U
b11100 !
b11100 7
b11100 e
1%
#2080
0%
#2085
b11110 Z
b11110 [
b11110 T
b11110 U
b11101 !
b11101 7
b11101 e
1%
#2090
0%
#2095
b11111 Z
b11111 [
b11111 T
b11111 U
b11110 !
b11110 7
b11110 e
1%
#2100
0%
#2105
b100000 Z
b100000 [
b100000 T
b100000 U
b11111 !
b11111 7
b11111 e
1%
#2110
0%
#2115
b100001 Z
b100001 [
b100001 T
b100001 U
b100000 !
b100000 7
b100000 e
1%
#2120
0%
#2125
b100010 Z
b100010 [
b100010 T
b100010 U
b100001 !
b100001 7
b100001 e
1%
#2130
0%
#2135
b100011 Z
b100011 [
b100011 T
b100011 U
b100010 !
b100010 7
b100010 e
1%
#2140
0%
#2145
b100100 Z
b100100 [
b100100 T
b100100 U
b100011 !
b100011 7
b100011 e
1%
#2150
0%
#2155
b100101 Z
b100101 [
b100101 T
b100101 U
b100100 !
b100100 7
b100100 e
1%
#2160
0%
#2165
b100110 Z
b100110 [
b100110 T
b100110 U
b100101 !
b100101 7
b100101 e
1%
#2170
0%
#2175
b100111 Z
b100111 [
b100111 T
b100111 U
b100110 !
b100110 7
b100110 e
1%
#2180
0%
#2185
b101000 Z
b101000 [
b101000 T
b101000 U
b100111 !
b100111 7
b100111 e
1%
#2190
0%
#2195
b101001 Z
b101001 [
b101001 T
b101001 U
b101000 !
b101000 7
b101000 e
1%
#2200
0%
#2205
b101010 Z
b101010 [
b101010 T
b101010 U
b101001 !
b101001 7
b101001 e
1%
#2210
0%
#2215
b101011 Z
b101011 [
b101011 T
b101011 U
b101010 !
b101010 7
b101010 e
1%
#2220
0%
#2225
b101100 Z
b101100 [
b101100 T
b101100 U
b101011 !
b101011 7
b101011 e
1%
#2230
0%
#2235
b101101 Z
b101101 [
b101101 T
b101101 U
b101100 !
b101100 7
b101100 e
1%
#2240
0%
#2245
b101110 Z
b101110 [
b101110 T
b101110 U
b101101 !
b101101 7
b101101 e
1%
#2250
0%
#2255
b101111 Z
b101111 [
b101111 T
b101111 U
b101110 !
b101110 7
b101110 e
1%
#2260
0%
#2265
b110000 Z
b110000 [
b110000 T
b110000 U
b101111 !
b101111 7
b101111 e
1%
#2270
0%
#2275
b110001 Z
b110001 [
b110001 T
b110001 U
b110000 !
b110000 7
b110000 e
1%
#2280
0%
#2285
b110010 Z
b110010 [
b110010 T
b110010 U
b110001 !
b110001 7
b110001 e
1%
#2290
0%
#2295
b110011 Z
b110011 [
b110011 T
b110011 U
b110010 !
b110010 7
b110010 e
1%
#2300
0%
#2305
b110100 Z
b110100 [
b110100 T
b110100 U
b110011 !
b110011 7
b110011 e
1%
#2310
0%
#2315
b110101 Z
b110101 [
b110101 T
b110101 U
b110100 !
b110100 7
b110100 e
1%
#2320
0%
#2325
b110110 Z
b110110 [
b110110 T
b110110 U
b110101 !
b110101 7
b110101 e
1%
#2330
0%
#2335
b110111 Z
b110111 [
b110111 T
b110111 U
b110110 !
b110110 7
b110110 e
1%
#2340
0%
#2345
b111000 Z
b111000 [
b111000 T
b111000 U
b110111 !
b110111 7
b110111 e
1%
